L 06/08/2022 - 17:36:32: SourceMod error session started
L 06/08/2022 - 17:36:32: Info (map "dm_wiseau") (file "/home/steam/sdk2013/open_fortress/addons/sourcemod/logs/errors_20220608.log")
L 06/08/2022 - 17:36:32: [CRASH] Accelerator uploaded crash dump: Crash ID: FQ3F-C2EE-BDRI
